<svg width="34" height="33" viewBox="0 0 34 33" fill="none" xmlns="http://www.w3.org/2000/svg">
<path d="M19.3849 28.806C24.3939 28.806 28.4544 24.7454 28.4544 19.7365C28.4544 14.7276 24.3939 10.667 19.3849 10.667C14.376 10.667 10.3154 14.7276 10.3154 19.7365C10.3154 24.7454 14.376 28.806 19.3849 28.806Z" stroke="#171321" stroke-width="0.680851" stroke-miterlimit="10"/>
<path d="M29.0636 26.0681L25.9834 29.1483L28.4956 31.6604C29.471 32.6358 31.0522 32.6358 32.0276 31.6604L32.9995 30.6885L29.7481 27.437" stroke="#171321" stroke-width="0.680851" stroke-miterlimit="10"/>
<path d="M25.9834 26.0681L27.3524 27.437" stroke="#171321" stroke-width="0.680851" stroke-miterlimit="10"/>
<path d="M19.8233 7.92907L19.8028 0.399689H7.83105" stroke="#171321" stroke-width="0.680851" stroke-miterlimit="10"/>
<path d="M1 7.24457V25.3835H12.2941" stroke="#171321" stroke-width="0.680851" stroke-miterlimit="10"/>
<path d="M7.8312 7.24116L1 7.24458V6.5601L7.16041 0.399689H7.8312V7.24116Z" stroke="#171321" stroke-width="0.680851" stroke-miterlimit="10"/>
<path d="M14.3477 18.1964H24.2728" stroke="#171321" stroke-width="0.680851" stroke-miterlimit="10"/>
<path d="M14.3477 21.6189H19.8236" stroke="#171321" stroke-width="0.680851" stroke-miterlimit="10"/>
</svg>
