<svg width="25" height="24" viewBox="0 0 25 24" fill="none" xmlns="http://www.w3.org/2000/svg">
<g clip-path="url(#clip0_50_802)">
<path d="M11.2007 0.619324C12.3839 0.434509 13.5887 0.434509 14.7719 0.619324L15.4775 2.56092C15.5634 2.79137 15.6958 3.00164 15.8666 3.17864C16.0373 3.35564 16.2427 3.49556 16.4699 3.58969C16.6971 3.68381 16.9413 3.73012 17.1871 3.72572C17.433 3.72132 17.6754 3.66631 17.8991 3.56412L19.7687 2.69052C20.7368 3.39704 21.5894 4.24959 22.2959 5.21772L21.4223 7.08732C21.3201 7.31102 21.2651 7.55336 21.2607 7.79925C21.2563 8.04514 21.3026 8.2893 21.3967 8.51651C21.4908 8.74371 21.6308 8.94909 21.8078 9.11983C21.9848 9.29058 22.195 9.42303 22.4255 9.50892L24.3671 10.2145C24.5519 11.3977 24.5519 12.6025 24.3671 13.7857L22.4255 14.4913C22.195 14.5772 21.9848 14.7097 21.8078 14.8804C21.6308 15.0511 21.4908 15.2565 21.3967 15.4837C21.3026 15.7109 21.2563 15.9551 21.2607 16.201C21.2651 16.4469 21.3201 16.6892 21.4223 16.9129L22.2959 18.7849C21.5886 19.7517 20.7362 20.6034 19.7687 21.3097L17.8991 20.4361C17.6754 20.3339 17.433 20.2789 17.1871 20.2745C16.9413 20.2701 16.6971 20.3164 16.4699 20.4106C16.2427 20.5047 16.0373 20.6446 15.8666 20.8216C15.6958 20.9986 15.5634 21.2089 15.4775 21.4393L15.2375 22.1209" stroke="#A989F5" stroke-width="0.75" stroke-linecap="round" stroke-linejoin="round"/>
<path d="M14.7718 23.3807C13.5886 23.5656 12.3839 23.5656 11.2006 23.3807L10.495 21.4391C10.4091 21.2087 10.2767 20.9984 10.1059 20.8214C9.93521 20.6444 9.72983 20.5045 9.50262 20.4104C9.27542 20.3163 9.03126 20.2699 8.78537 20.2743C8.53948 20.2787 8.29713 20.3337 8.07344 20.4359L6.20384 21.3095C5.23634 20.6032 4.38387 19.7516 3.67664 18.7847L4.55024 16.9127C4.65465 16.6894 4.71141 16.4467 4.7169 16.2002C4.72239 15.9537 4.67648 15.7087 4.58211 15.4809C4.48774 15.2531 4.34697 15.0475 4.16877 14.8771C3.99056 14.7067 3.77882 14.5752 3.54704 14.4911L1.60544 13.7855C1.42058 12.6023 1.42058 11.3976 1.60544 10.2143L3.54704 9.50874C3.77748 9.42285 3.98776 9.2904 4.16475 9.11966C4.34175 8.94891 4.48167 8.74354 4.5758 8.51633C4.66992 8.28913 4.71623 8.04496 4.71183 7.79907C4.70743 7.55318 4.65243 7.31084 4.55024 7.08714L3.67664 5.21514C4.38387 4.24832 5.23634 3.39666 6.20384 2.69034L8.07344 3.56394C8.29713 3.66613 8.53948 3.72114 8.78537 3.72554C9.03126 3.72994 9.27542 3.68363 9.50262 3.58951C9.72983 3.49538 9.93521 3.35546 10.1059 3.17846C10.2767 3.00146 10.4091 2.79119 10.495 2.56074L10.7014 1.99194" stroke="#A989F5" stroke-width="0.75" stroke-linecap="round" stroke-linejoin="round"/>
<path d="M12.985 17.3951C15.9647 17.3951 18.3802 14.9796 18.3802 11.9999C18.3802 9.02025 15.9647 6.60474 12.985 6.60474C10.0054 6.60474 7.58984 9.02025 7.58984 11.9999C7.58984 14.9796 10.0054 17.3951 12.985 17.3951Z" stroke="#A989F5" stroke-width="0.75" stroke-linecap="round" stroke-linejoin="round"/>
<path d="M12.99 12.9297C13.8889 12.9297 14.6177 12.2009 14.6177 11.302C14.6177 10.4031 13.8889 9.67432 12.99 9.67432C12.091 9.67432 11.3623 10.4031 11.3623 11.302C11.3623 12.2009 12.091 12.9297 12.99 12.9297Z" stroke="#A989F5" stroke-width="0.75" stroke-linecap="round" stroke-linejoin="round"/>
<path d="M15.5351 15.2255C14.7979 14.6784 13.9043 14.3831 12.9863 14.3831C12.0683 14.3831 11.1747 14.6784 10.4375 15.2255" stroke="#A989F5" stroke-width="0.75" stroke-linecap="round" stroke-linejoin="round"/>
</g>
<defs>
<clipPath id="clip0_50_802">
<rect width="24" height="24" fill="white" transform="translate(0.986328)"/>
</clipPath>
</defs>
</svg>
