<svg width="61" height="40" viewBox="0 0 61 40" fill="none" xmlns="http://www.w3.org/2000/svg">
<g clip-path="url(#clip0_126_12175)">
<path d="M9.47692 38.3965C9.52719 38.9645 9.98084 39.6848 10.767 39.6848H11.2276C11.406 39.6848 11.5514 39.5394 11.5514 39.361V29.2468H11.5497C11.541 29.0771 11.399 28.9403 11.2276 28.9403H9.80072C9.62763 28.9403 9.48735 29.0771 9.4787 29.2468H9.47692V30.0692C8.6025 28.9922 7.22587 28.5471 5.84405 28.5471C2.70292 28.5454 0.157471 31.0909 0.157471 34.2303C0.157471 37.3714 2.70292 39.9169 5.84405 39.9169C7.22413 39.9169 8.73066 39.3818 9.47692 38.3965ZM5.84925 37.9272C3.85271 37.9272 2.23366 36.2718 2.23366 34.2303C2.23366 32.1887 3.85271 30.535 5.84925 30.535C7.84578 30.535 9.4648 32.1904 9.4648 34.2303C9.4648 36.2718 7.84578 37.9272 5.84925 37.9272Z" fill="#0D0E10"/>
<path d="M32.7116 38.3965C32.7618 38.9645 33.2154 39.6848 34.0016 39.6848H34.4622C34.6406 39.6848 34.786 39.5394 34.786 39.361V29.2468H34.7843C34.7757 29.0771 34.6336 28.9402 34.4622 28.9402H33.0354C32.8622 28.9402 32.722 29.0771 32.7116 29.2468V30.0692C31.8371 28.9922 30.4605 28.5471 29.0787 28.5471C25.9393 28.5471 23.3921 31.0926 23.3921 34.2337C23.3921 37.3748 25.9375 39.9203 29.0787 39.9203C30.4605 39.9168 31.967 39.3818 32.7116 38.3965ZM29.0856 37.9272C27.0891 37.9272 25.47 36.2718 25.47 34.2303C25.47 32.1887 27.0891 30.535 29.0856 30.535C31.0821 30.535 32.7012 32.1904 32.7012 34.2303C32.7012 36.2718 31.0821 37.9272 29.0856 37.9272Z" fill="#0D0E10"/>
<path d="M58.6874 38.3965C58.7375 38.9645 59.1913 39.6848 59.9774 39.6848H60.438C60.6163 39.6848 60.7636 39.5394 60.7636 39.361V29.2468H60.7618C60.7531 29.0771 60.6112 28.9402 60.4398 28.9402H59.0129C58.8398 28.9402 58.6995 29.0771 58.6908 29.2468H58.6891V30.0692C57.8146 28.9922 56.438 28.5471 55.0562 28.5471C51.9151 28.5471 49.3696 31.0926 49.3696 34.2337C49.3696 37.3748 51.9151 39.9203 55.0562 39.9203C56.4363 39.9168 57.941 39.3818 58.6874 38.3965ZM55.0596 37.9272C53.0631 37.9272 51.4441 36.2718 51.4441 34.2303C51.4441 32.1887 53.0631 30.535 55.0596 30.535C57.0562 30.535 58.6752 32.1904 58.6752 34.2303C58.6769 36.2718 57.058 37.9272 55.0596 37.9272Z" fill="#0D0E10"/>
<path d="M47.5652 38.7429V33.5083C47.5652 30.5577 45.7037 28.568 42.7357 28.568C41.3193 28.568 40.0224 29.3801 39.747 30.0918C39.6587 29.5412 39.366 28.9628 38.4604 28.9628H37.9981C37.8198 28.9628 37.6743 29.1083 37.6743 29.2884V38.4208V38.4225V39.3853V39.4027H37.676C37.6847 39.5724 37.8266 39.7092 37.9981 39.7092H38.9643H39.4249C39.4475 39.7092 39.4683 39.7074 39.489 39.7022C39.4977 39.7004 39.5081 39.697 39.5167 39.6936C39.5271 39.6901 39.5375 39.6883 39.5479 39.6831C39.56 39.678 39.5721 39.671 39.5842 39.6641C39.5895 39.6607 39.5963 39.6572 39.6016 39.6537C39.6154 39.6451 39.6293 39.633 39.6414 39.6225C39.6431 39.6208 39.6466 39.6191 39.6483 39.6174C39.6622 39.6035 39.676 39.588 39.6864 39.5724C39.7228 39.5239 39.7436 39.465 39.747 39.4009H39.7487V39.3836V38.7412V38.5732V33.4269C39.7487 31.8425 41.0336 30.5577 42.618 30.5577C44.2024 30.5577 45.4872 31.8425 45.4872 33.4269L45.489 38.4208V38.4191C45.489 38.4243 45.489 38.4277 45.489 38.433V39.3836V39.4009H45.4907C45.4994 39.5706 45.6414 39.7074 45.8128 39.7074H46.779H47.2396C47.2622 39.7074 47.283 39.7057 47.3037 39.7004C47.3124 39.6987 47.3193 39.6953 47.328 39.6936C47.3401 39.6901 47.3522 39.6866 47.3626 39.6831C47.3747 39.678 47.3851 39.671 47.3955 39.6659C47.4024 39.6624 47.4093 39.6589 47.4163 39.6554C47.4301 39.6468 47.4422 39.6364 47.4527 39.626C47.4561 39.6225 47.4595 39.6208 47.4613 39.6191C47.4751 39.6052 47.4872 39.5913 47.4977 39.5775C47.4977 39.5758 47.4994 39.5758 47.4994 39.5741C47.534 39.5256 47.5566 39.4667 47.56 39.4044H47.5618V39.3871L47.5652 38.7429Z" fill="#0D0E10"/>
<path d="M14.9591 36.9472C15.9115 37.607 16.9504 37.9273 17.9496 37.9273C18.9003 37.9273 19.8838 37.4338 19.8838 36.5749C19.8838 35.4286 17.7401 35.2502 16.3946 34.7931C15.0474 34.3359 13.8873 33.3888 13.8873 31.858C13.8873 29.5135 15.9756 28.5455 17.9253 28.5455C19.16 28.5455 20.4344 28.9524 21.2621 29.5359C21.5462 29.7524 21.373 30 21.373 30L20.5833 31.1273C20.495 31.2537 20.3392 31.3645 20.1176 31.226C19.8942 31.0892 19.115 30.5368 17.9253 30.5368C16.7357 30.5368 16.0189 31.0858 16.0189 31.7662C16.0189 32.5835 16.9504 32.8399 18.0414 33.1186C19.9427 33.6312 22.0154 34.2476 22.0154 36.5767C22.0154 38.6424 20.0829 39.9186 17.9479 39.9186C16.3288 39.9186 14.9522 39.458 13.7972 38.6096C13.5565 38.3688 13.7245 38.1455 13.7245 38.1455L14.5089 37.0251C14.67 36.8138 14.8708 36.8866 14.9591 36.9472Z" fill="#0D0E10"/>
<path d="M35.4595 4.99047C35.4595 7.74545 33.2257 9.98093 30.4707 9.98093C27.714 9.98093 25.4802 7.74718 25.4802 4.99047C25.4802 2.23377 27.714 0 30.4707 0C33.2257 0 35.4595 2.23377 35.4595 4.99047ZM23.9875 11.2277C21.2326 11.2277 18.9971 13.4615 18.9971 16.2165C18.9971 18.9714 21.2308 21.2069 23.9875 21.2069C26.7443 21.2069 28.9781 18.9732 28.9781 16.2165C28.9781 13.4615 26.7443 11.2277 23.9875 11.2277ZM36.9521 11.2277C34.1954 11.2277 31.9616 13.4615 31.9616 16.2182C31.9616 18.9749 34.1954 21.2086 36.9521 21.2086C39.7071 21.2086 41.9425 18.9749 41.9425 16.2182C41.9425 13.4615 39.7087 11.2277 36.9521 11.2277Z" fill="#F06A6A"/>
</g>
<defs>
<clipPath id="clip0_126_12175">
<rect width="60.6869" height="40" fill="white" transform="translate(0.156494)"/>
</clipPath>
</defs>
</svg>
